## Interface: 90002
## Title: WarcraftIncremental
## Author: Tex & AzerPUG Gaming Community (www.azerpug.com/discord)
## Notes: Incremental Game whithin WoW
## Version: SL 9.0.2 (For actual addon version, check main.lua)
## SavedVariables: InstanceUtilityLDB

main.lua